…
```r
options(cancensus.api_key = "CensusMapper_159fe4a88e8c934fece317e847beef84")
options(cancensus.cache_path = 'safe data/cache')
options(cancensus.cache_path = "/Users/dfuller/Desktop/cancensus") ##.rda files will be stored here
options(scipen = 99, digits = 12)

regions <- c("59933", "47725", "59935", "24462")

age <- find_census_vectors("age", dataset = "CA16", type = "total", query_type = "exact")
age
```

```
## # A tibble: 1,639 x 4
##    vector   type  label                    details                              
##    <chr>    <fct> <chr>                    <chr>                                
##  1 v_CA16_… Total Population percentage c… Population and Dwellings; Population…
##  2 v_CA16_1 Total Total - Age              Total - Age                          
##  3 v_CA16_4 Total 0 to 14 years            Total - Age; 0 to 14 years           
##  4 v_CA16_7 Total 0 to 4 years             Total - Age; 0 to 14 years; 0 to 4 y…
##  5 v_CA16_… Total Under 1 year             Total - Age; 0 to 14 years; 0 to 4 y…
##  6 v_CA16_… Total 1                        Total - Age; 0 to 14 years; 0 to 4 y…
##  7 v_CA16_… Total 2                        Total - Age; 0 to 14 years; 0 to 4 y…
##  8 v_CA16_… Total 3                        Total - Age; 0 to 14 years; 0 to 4 y…
##  9 v_CA16_… Total 4                        Total - Age; 0 to 14 years; 0 to 4 y…
## 10 v_CA16_… Total 5 to 9 years             Total - Age; 0 to 14 years; 5 to 9 y…
## # … with 1,629 more rows
```
…
```
## `summarise()` has grouped output by 'GeoUID'. You can override using the `.groups` argument.
```

```r
age_census_table
```

```
## # A tibble: 24 x 4
## # Groups:   GeoUID [4]
##    GeoUID age_cat age_pct city         
##    <chr>  <chr>     <dbl> <fct>        
##  1 24462  15_19      5.50 Montréal (B) 
##  2 24462  20_29     13.2  Montréal (B) 
##  3 24462  30_39     14.0  Montréal (B) 
##  4 24462  40_49     13.5  Montréal (B) 
##  5 24462  50_64     20.5  Montréal (B) 
##  6 24462  65+       16.4  Montréal (B) 
##  7 47725  15_19      5.98 Saskatoon (B)
##  8 47725  20_29     16.0  Saskatoon (B)
##  9 47725  30_39     15.4  Saskatoon (B)
## 10 47725  40_49     12.3  Saskatoon (B)
## # … with 14 more rows
```

## Income


```r
income <- find_census_vectors("income", dataset = "CA16", type = "total", query_type = "exact")
income
```

```
## # A tibble: 217 x 4
##    vector   type  label                          details                        
##    <chr>    <fct> <chr>                          <chr>                          
##  1 v_CA16_… Total Total - Income statistics in … Income; Individuals; Total - I…
##  2 v_CA16_… Total Number of total income recipi… Income; Individuals; Total - I…
##  3 v_CA16_… Total Median total income in 2015 a… Income; Individuals; Total - I…
##  4 v_CA16_… Total Number of after-tax income re… Income; Individuals; Total - I…
##  5 v_CA16_… Total Median after-tax income in 20… Income; Individuals; Total - I…
##  6 v_CA16_… Total Number of market income recip… Income; Individuals; Total - I…
##  7 v_CA16_… Total Median market income in 2015 … Income; Individuals; Total - I…
##  8 v_CA16_… Total Number of government transfer… Income; Individuals; Total - I…
##  9 v_CA16_… Total Median government transfers i… Income; Individuals; Total - I…
## 10 v_CA16_… Total Number of employment income r… Income; Individuals; Total - I…
## # … with 207 more rows
```
…
### Education 


```r
education <- find_census_vectors("education", dataset = "CA16", type = "total", query_type = "exact")
education
```

```
## # A tibble: 184 x 4
##    vector   type  label                          details                        
##    <chr>    <fct> <chr>                          <chr>                          
##  1 v_CA16_… Total Total - Highest certificate, … 25% Data; Education; Certifica…
##  2 v_CA16_… Total No certificate, diploma or de… 25% Data; Education; Certifica…
##  3 v_CA16_… Total Secondary (high) school diplo… 25% Data; Education; Certifica…
##  4 v_CA16_… Total Postsecondary certificate, di… 25% Data; Education; Certifica…
##  5 v_CA16_… Total Apprenticeship or trades cert… 25% Data; Education; Certifica…
##  6 v_CA16_… Total Trades certificate or diploma… 25% Data; Education; Certifica…
##  7 v_CA16_… Total Certificate of Apprenticeship… 25% Data; Education; Certifica…
##  8 v_CA16_… Total College, CEGEP or other non-u… 25% Data; Education; Certifica…
##  9 v_CA16_… Total University certificate or dip… 25% Data; Education; Certifica…
## 10 v_CA16_… Total University certificate, diplo… 25% Data; Education; Certifica…
## # … with 174 more rows
```
…
```
## `summarise()` has grouped output by 'GeoUID'. You can override using the `.groups` argument.
```

```r
education_census_table
```

```
## # A tibble: 24 x 4
## # Groups:   GeoUID [4]
##    GeoUID education_cat        educt_pct city         
##    <chr>  <chr>                    <dbl> <fct>        
##  1 24462  ""                      119.   Montréal (B) 
##  2 24462  "Graduate degree"         2.93 Montréal (B) 
##  3 24462  "Primary/Elementary"     11.3  Montréal (B) 
##  4 24462  "Secondary"              18.3  Montréal (B) 
##  5 24462  "Trade/Technical"        34.1  Montréal (B) 
##  6 24462  "University degree"      31.9  Montréal (B) 
##  7 47725  ""                      109.   Saskatoon (B)
##  8 47725  "Graduate degree"         1.30 Saskatoon (B)
##  9 47725  "Primary/Elementary"      8.20 Saskatoon (B)
## 10 47725  "Secondary"              26.1  Saskatoon (B)
## # … with 14 more rows
```
…
```r
ethnicity <- find_census_vectors("minority", dataset = "CA16", type = "total", query_type = "semantic")
```

```
## Multiple possible matches. Results ordered by closeness.
```

```r
ethnicity
```

```
## # A tibble: 296 x 4
##    vector   type  label                          details                        
##    <chr>    <fct> <chr>                          <chr>                          
##  1 v_CA16_… Total Official language minority (n… Language; Official Language; O…
##  2 v_CA16_… Total Official language minority (p… Language; Official Language; O…
##  3 v_CA16_… Total Total - Visible minority for … 25% Data; Minority / Origin; T…
##  4 v_CA16_… Total Total visible minority popula… 25% Data; Minority / Origin; T…
##  5 v_CA16_… Total South Asian                    25% Data; Minority / Origin; T…
##  6 v_CA16_… Total Chinese                        25% Data; Minority / Origin; T…
##  7 v_CA16_… Total Black                          25% Data; Minority / Origin; T…
##  8 v_CA16_… Total Filipino                       25% Data; Minority / Origin; T…
##  9 v_CA16_… Total Latin American                 25% Data; Minority / Origin; T…
## 10 v_CA16_… Total Arab                           25% Data; Minority / Origin; T…
## # … with 286 more rows
```
…
```
## `summarise()` has grouped output by 'GeoUID'. You can override using the `.groups` argument.
```

```r
ethnicity_census_table
```

```
## # A tibble: 28 x 4
## # Groups:   GeoUID [4]
##    GeoUID ethnicity_cat    eth_pct city         
##    <chr>  <chr>              <dbl> <fct>        
##  1 24462  ""                  2.93 Montréal (B) 
##  2 24462  "Asian"             6.71 Montréal (B) 
##  3 24462  "Black"             6.61 Montréal (B) 
##  4 24462  "Indigenous"        2.88 Montréal (B) 
##  5 24462  "Latin American"    2.69 Montréal (B) 
##  6 24462  "Middle Eastern"    5.37 Montréal (B) 
##  7 24462  "White"            75.8  Montréal (B) 
##  8 47725  ""                 11.7  Saskatoon (B)
##  9 47725  "Asian"            12.2  Saskatoon (B)
## 10 47725  "Black"             1.89 Saskatoon (B)
## # … with 18 more rows
```
…
```
## `summarise()` has grouped output by 'interact_id', 'date'. You can override using the `.groups` argument.
```

```r
sd_pa_table
```

```
## # A tibble: 6,763 x 13
## # Groups:   interact_id, date [6,763]
##    interact_id date       city_id   time wearing mean_mpva_sd sd_mpva_sd
##          <int> <date>     <chr>    <dbl>   <dbl>        <dbl>      <dbl>
##  1   101001706 2017-10-23 victoria    45       1            0          0
##  2   101001706 2017-10-24 victoria   549       1            6          0
##  3   101001706 2017-10-25 victoria   728       1           17          0
##  4   101001706 2017-10-26 victoria   490       1            7          0
##  5   101001706 2017-10-27 victoria   700       1           13          0
##  6   101001706 2017-10-28 victoria   554       1           13          0
##  7   101001706 2017-10-29 victoria   552       1           13          0
##  8   101001706 2017-10-30 victoria   583       1           13          0
##  9   101001706 2017-10-31 victoria   609       1           11          0
## 10   101001706 2017-11-01 victoria    28       1            3          0
## # … with 6,753 more rows, and 6 more variables: mean_sed_sd <dbl>,
## #   sd_sed_sd <dbl>, mean_light_sd <dbl>, sd_light_sd <dbl>, na_count <int>,
## #   count <int>
```
…
```
## `summarise()` has grouped output by 'interact_id', 'date'. You can override using the `.groups` argument.
```

```r
ethica_pa_table
```

```
## # A tibble: 8,172 x 13
## # Groups:   interact_id, date [8,172]
##    interact_id date       city_id   time wearing mean_mvpa sd_mvpa mean_sed
##          <int> <date>     <chr>    <dbl>   <dbl>     <dbl>   <dbl>    <dbl>
##  1   101005415 2017-10-09 victoria   237       1        94       0      120
##  2   101005415 2017-10-10 victoria    10       1         0       0       10
##  3   101011680 2017-07-22 victoria    61       1        31       0       19
##  4   101011680 2017-07-23 victoria    41       1         7       0       26
##  5   101011680 2017-07-24 victoria    46       1         9       0       24
##  6   101011680 2017-07-25 victoria    33       1         7       0       10
##  7   101011680 2017-07-26 victoria    44       1         0       0       44
##  8   101011680 2017-07-27 victoria    38       1         7       0        6
##  9   101011680 2017-07-28 victoria    10       1         2       0        0
## 10   101011680 2017-07-29 victoria    78       1        24       0       45
## # … with 8,162 more rows, and 5 more variables: sd_sed <dbl>, mean_light <dbl>,
## #   sd_light <dbl>, na_count <int>, count <int>
```
…
